﻿/debug:pdbonly
/nowarn:0436;0618;1668;1685;1701;1702
/debug+
/nostdlib+
/optimize+
/out:"C:\Users\moham\source\repos\spacex\spacex\obj\x64\Release\ilc\intermediate\spacex.McgInterop.dll"
/pdb:"C:\Users\moham\source\repos\spacex\spacex\obj\x64\Release\ilc\intermediate\spacex.McgInterop.pdb"
/platform:anycpu
/warnaserror+
/unsafe
/nologo
/target:library
/define:MCG_PRE_BUILD
/define:WIN64
/define:AMD64
/define:ALIGN_ACCESS
/r:"C:\Program Files (x86)\Microsoft SDKs\UWPNuGetPackages\runtime.win10-x64.microsoft.net.native.sharedlibrary\2.1.8\tools\SharedLibrary\ret\AnalysisILToc\System.Private.CoreLib.iltoc"
/r:"C:\Program Files (x86)\Microsoft SDKs\UWPNuGetPackages\runtime.win10-x64.microsoft.net.native.sharedlibrary\2.1.8\tools\SharedLibrary\ret\AnalysisILToc\System.Private.Interop.iltoc"
/r:"C:\Program Files (x86)\Microsoft SDKs\UWPNuGetPackages\runtime.win10-x64.microsoft.net.native.sharedlibrary\2.1.8\tools\SharedLibrary\ret\AnalysisILToc\System.Private.Uri.iltoc"
/r:"C:\Users\moham\source\repos\spacex\spacex\obj\x64\Release\ilc\in\System.Reflection.DispatchProxy.dll"
/r:"C:\Users\moham\source\repos\spacex\spacex\obj\x64\Release\ilc\in\System.Reflection.dll"
/r:"C:\Program Files (x86)\Microsoft SDKs\UWPNuGetPackages\runtime.win10-x64.microsoft.net.native.sharedlibrary\2.1.8\tools\SharedLibrary\ret\AnalysisILToc\System.Runtime.iltoc"
/r:"C:\Users\moham\source\repos\spacex\spacex\obj\x64\Release\ilc\in\System.Runtime.InteropServices.dll"
/r:"C:\Users\moham\source\repos\spacex\spacex\obj\x64\Release\ilc\in\System.Runtime.InteropServices.WindowsRuntime.dll"
/r:"C:\Users\moham\source\repos\spacex\spacex\obj\x64\Release\ilc\in\System.Numerics.Vectors.dll"
/r:"C:\Program Files (x86)\Microsoft SDKs\UWPNuGetPackages\runtime.win10-x64.microsoft.net.native.sharedlibrary\2.1.8\tools\SharedLibrary\ret\AnalysisILToc\System.Threading.iltoc"
/r:"C:\Program Files (x86)\Microsoft SDKs\UWPNuGetPackages\runtime.win10-x64.microsoft.net.native.sharedlibrary\2.1.8\tools\SharedLibrary\ret\AnalysisILToc\System.Diagnostics.Debug.iltoc"
/r:"C:\Program Files (x86)\Microsoft SDKs\UWPNuGetPackages\runtime.win10-x64.microsoft.net.native.sharedlibrary\2.1.8\tools\SharedLibrary\ret\AnalysisILToc\System.Runtime.Extensions.iltoc"
/r:"C:\Program Files (x86)\Microsoft SDKs\UWPNuGetPackages\runtime.win10-x64.microsoft.net.native.sharedlibrary\2.1.8\tools\SharedLibrary\ret\AnalysisILToc\System.Collections.iltoc"
/r:"C:\Program Files (x86)\Microsoft SDKs\UWPNuGetPackages\runtime.win10-x64.microsoft.net.native.sharedlibrary\2.1.8\tools\SharedLibrary\ret\AnalysisILToc\System.ObjectModel.iltoc"
/r:"C:\Users\moham\source\repos\spacex\spacex\obj\x64\Release\ilc\in\System.Runtime.WindowsRuntime.dll"
/r:"C:\Users\moham\source\repos\spacex\spacex\obj\x64\Release\ilc\in\System.Runtime.WindowsRuntime.UI.Xaml.dll"
/r:"C:\Program Files (x86)\Microsoft SDKs\UWPNuGetPackages\runtime.win10-x64.microsoft.net.native.sharedlibrary\2.1.8\tools\SharedLibrary\ret\AnalysisILToc\System.Private.SharedLibrary.Interop.Generated.iltoc"
/r:"C:\Users\moham\source\repos\spacex\spacex\obj\x64\Release\ilc\intermediate\System.Private.spacex.Generated.dll"
"C:\Users\moham\source\repos\spacex\spacex\obj\x64\Release\ilc\intermediate\spacex.McgInterop\Adapters.g.cs"
"C:\Users\moham\source\repos\spacex\spacex\obj\x64\Release\ilc\intermediate\spacex.McgInterop\AssemblyInfo.g.cs"
"C:\Users\moham\source\repos\spacex\spacex\obj\x64\Release\ilc\intermediate\spacex.McgInterop\Data.g.cs"
"C:\Users\moham\source\repos\spacex\spacex\obj\x64\Release\ilc\intermediate\spacex.McgInterop\Helpers.g.cs"
"C:\Users\moham\source\repos\spacex\spacex\obj\x64\Release\ilc\intermediate\spacex.McgInterop\ImplTypes.g.cs"
"C:\Users\moham\source\repos\spacex\spacex\obj\x64\Release\ilc\intermediate\spacex.McgInterop\PInvoke.g.cs"
"C:\Users\moham\source\repos\spacex\spacex\obj\x64\Release\ilc\intermediate\spacex.McgInterop\SafeTypes.g.cs"
"C:\Users\moham\source\repos\spacex\spacex\obj\x64\Release\ilc\intermediate\spacex.McgInterop\SharedStubs.g.cs"
